cpu_test.vcd
$date
	Wed Oct 29 17:26:20 2025
$end
$version
	Icarus Verilog
$end
$timescale
	1ps
$end
$scope module top_tb $end
$var wire 1 ! icache_stall $end
$var wire 32 " stall_count [31:0] $end
$var wire 32 # pc_if [31:0] $end
$var wire 32 $ pc_id [31:0] $end
$var wire 32 % instruction_if [31:0] $end
$var wire 32 & instruction_id [31:0] $end
$var wire 32 ' instruction_count [31:0] $end
$var wire 32 ( cycle_count [31:0] $end
$var wire 32 ) branch_mispredicts [31:0] $end
$var wire 1 * branch_mispredict $end
$var wire 32 + branch_count [31:0] $end
$var reg 1 , clk $end
$var reg 1 - reset $end
$scope module dut $end
$var wire 1 , clk $end
$var wire 1 ! icache_stall_signal $end
$var wire 32 . instruction_id [31:0] $end
$var wire 1 - reset $end
$var wire 32 / stall_count [31:0] $end
$var wire 32 0 pc_if_debug [31:0] $end
$var wire 32 1 pc_id_debug [31:0] $end
$var wire 1 2 is_store $end
$var wire 1 3 is_load $end
$var wire 1 4 is_jump $end
$var wire 1 5 is_jalr $end
$var wire 1 6 is_jal $end
$var wire 1 7 is_branch $end
$var wire 32 8 instruction_if_debug [31:0] $end
$var wire 32 9 instruction_id_debug [31:0] $end
$var wire 32 : instruction_count [31:0] $end
$var wire 32 ; cycle_count [31:0] $end
$var wire 32 < branch_mispredicts [31:0] $end
$var wire 1 * branch_mispredict_signal $end
$var wire 32 = branch_count [31:0] $end
$var wire 1 > branch $end
$var wire 1 ? RegWrite $end
$var wire 1 @ MemWrite $end
$var wire 1 A MemToReg $end
$var wire 1 B MemRead $end
$var wire 4 C ALU_op [3:0] $end
$var wire 1 D ALUSrc $end
$scope module control_unit_inst $end
$var wire 32 E instruction [31:0] $end
$var wire 7 F opcode [6:0] $end
$var wire 7 G funct7 [6:0] $end
$var wire 3 H funct3 [2:0] $end
$var wire 4 I decoded_funct7 [3:0] $end
$var reg 1 D ALUSrc $end
$var reg 4 J ALU_op [3:0] $end
$var reg 1 B MemRead $end
$var reg 1 A MemToReg $end
$var reg 1 @ MemWrite $end
$var reg 1 ? RegWrite $end
$var reg 1 > branch $end
$var reg 1 7 is_branch $end
$var reg 1 6 is_jal $end
$var reg 1 5 is_jalr $end
$var reg 1 4 is_jump $end
$var reg 1 3 is_load $end
$var reg 1 2 is_store $end
$scope module decode_inst $end
$var wire 7 K funct7 [6:0] $end
$var reg 4 L alu_op [3:0] $end
$upscope $end
$upscope $end
$scope module dp $end
$var wire 1 D ALUSrc_id $end
$var wire 4 M ALU_op_id [3:0] $end
$var wire 1 B MemRead_id $end
$var wire 1 A MemToReg_id $end
$var wire 1 @ MemWrite_id $end
$var wire 1 ? RegWrite_id $end
$var wire 32 N alu_in_a [31:0] $end
$var wire 1 > branch_id $end
$var wire 1 * branch_mispredict $end
$var wire 1 , clk $end
$var wire 1 O control_hazard $end
$var wire 1 P flush_ex $end
$var wire 1 Q flush_id $end
$var wire 1 R flush_if $end
$var wire 1 ! icache_stall $end
$var wire 32 S instruction_id_debug [31:0] $end
$var wire 32 T instruction_if_debug [31:0] $end
$var wire 1 7 is_branch_id $end
$var wire 1 6 is_jal_id $end
$var wire 1 5 is_jalr_id $end
$var wire 1 4 is_jump_id $end
$var wire 32 U pc_id_debug [31:0] $end
$var wire 32 V pc_if_debug [31:0] $end
$var wire 1 - reset $end
$var wire 1 W stall $end
$var wire 1 X use_ras_prediction $end
$var wire 4 Y write_enable_mem [3:0] $end
$var wire 32 Z write_back_data [31:0] $end
$var wire 5 [ rs2_id [4:0] $end
$var wire 32 \ rs2_data_mem [31:0] $end
$var wire 32 ] rs2_data_id [31:0] $end
$var wire 32 ^ rs2_data_ex [31:0] $end
$var wire 5 _ rs2_addr_ex [4:0] $end
$var wire 5 ` rs1_id [4:0] $end
$var wire 32 a rs1_data_id [31:0] $end
$var wire 32 b rs1_data_ex [31:0] $end
$var wire 5 c rs1_addr_ex [4:0] $end
$var wire 5 d rd_wb [4:0] $end
$var wire 5 e rd_mem [4:0] $end
$var wire 5 f rd_id [4:0] $end
$var wire 5 g rd_ex [4:0] $end
$var wire 1 h ras_valid $end
$var wire 32 i ras_top_addr [31:0] $end
$var wire 3 j ras_ptr [2:0] $end
$var wire 1 k prediction_if $end
$var wire 1 l prediction_id $end
$var wire 1 m prediction_ex $end
$var wire 32 n predicted_target_id [31:0] $end
$var wire 32 o predicted_target_ex [31:0] $end
$var wire 32 p predicted_pc_if [31:0] $end
$var wire 2 q predict_strength_if [1:0] $end
$var wire 32 r pc_plus4_if [31:0] $end
$var wire 32 s pc_plus4_id [31:0] $end
$var wire 32 t pc_plus4_ex [31:0] $end
$var wire 32 u pc_next_if [31:0] $end
$var wire 32 v pc_if [31:0] $end
$var wire 32 w pc_id [31:0] $end
$var wire 32 x pc_ex [31:0] $end
$var wire 7 y opcode_id [6:0] $end
$var wire 7 z opcode_ex [6:0] $end
$var wire 32 { mem_read_data [31:0] $end
$var wire 32 | mem_data_wb [31:0] $end
$var wire 1 } load_use_stall $end
$var wire 2 ~ load_type_mem [1:0] $end
$var wire 1 !" is_jalr_ex $end
$var wire 1 "" is_jal_ex $end
$var wire 1 #" is_branch_ex $end
$var wire 32 $" instruction_if [31:0] $end
$var wire 32 %" instruction_id [31:0] $end
$var wire 1 &" instr_30_id $end
$var wire 1 '" instr_30_ex $end
$var wire 32 (" immediate_id [31:0] $end
$var wire 32 )" immediate_ex [31:0] $end
$var wire 3 *" funct3_mem [2:0] $end
$var wire 3 +" funct3_id [2:0] $end
$var wire 3 ," funct3_ex [2:0] $end
$var wire 32 -" forwarded_rs2_ex [31:0] $end
$var wire 32 ." forwarded_rs1_ex [31:0] $end
$var wire 2 /" forward_b [1:0] $end
$var wire 2 0" forward_a [1:0] $end
$var wire 32 1" ex_result [31:0] $end
$var wire 32 2" btb_target_if [31:0] $end
$var wire 1 3" btb_hit $end
$var wire 32 4" branch_target_ex [31:0] $end
$var wire 1 5" branch_taken_ex $end
$var wire 1 6" branch_ex $end
$var wire 1 7" alu_zero_ex $end
$var wire 32 8" alu_result_wb [31:0] $end
$var wire 32 9" alu_result_mem [31:0] $end
$var wire 32 :" alu_result_ex [31:0] $end
$var wire 32 ;" alu_in_b [31:0] $end
$var wire 32 <" actual_next_pc_ex [31:0] $end
$var wire 1 =" RegWrite_wb $end
$var wire 1 >" RegWrite_mem $end
$var wire 1 ?" RegWrite_ex $end
$var wire 1 @" MemWrite_mem $end
$var wire 1 A" MemWrite_ex $end
$var wire 1 B" MemToReg_wb $end
$var wire 1 C" MemToReg_mem $end
$var wire 1 D" MemToReg_ex $end
$var wire 1 E" MemRead_mem $end
$var wire 1 F" MemRead_ex $end
$var wire 4 G" ALU_op_ex [3:0] $end
$var wire 1 H" ALUSrc_ex $end
$scope module alu_inst $end
$var wire 32 I" a [31:0] $end
$var wire 32 J" b [31:0] $end
$var wire 32 K" signed_a [31:0] $end
$var wire 32 L" signed_b [31:0] $end
$var wire 5 M" shift_amount [4:0] $end
$var wire 4 N" ALUControl [3:0] $end
$var reg 32 O" result [31:0] $end
$var reg 1 7" zero $end
$upscope $end
$scope module bp_inst $end
$var wire 1 , clk $end
$var wire 1 P" predict_enable $end
$var wire 1 - reset $end
$var wire 4 Q" update_index [3:0] $end
$var wire 1 6" update_enable $end
$var wire 1 k prediction $end
$var wire 2 R" predict_strength [1:0] $end
$var wire 4 S" predict_index [3:0] $end
$var wire 32 T" pc_update [31:0] $end
$var wire 32 U" pc_if [31:0] $end
$var wire 1 #" is_branch $end
$var wire 1 5" branch_taken $end
$var integer 32 V" i [31:0] $end
$upscope $end
$scope module branch_control_inst $end
$var wire 1 7" alu_zero $end
$var wire 32 W" rs1_data [31:0] $end
$var wire 32 X" rs1_signed [31:0] $end
$var wire 32 Y" rs2_data [31:0] $end
$var wire 32 Z" rs2_signed [31:0] $end
$var wire 7 [" opcode [6:0] $end
$var wire 3 \" funct3 [2:0] $end
$var wire 1 6" branch_enable $end
$var reg 1 5" branch_taken $end
$upscope $end
$scope module btb_inst $end
$var wire 1 , clk $end
$var wire 1 ]" hit $end
$var wire 1 3" hit_valid $end
$var wire 1 ^" is_branch_or_jump $end
$var wire 1 _" lookup_enable $end
$var wire 1 - reset $end
$var wire 32 `" target_update [31:0] $end
$var wire 1 a" update_enable $end
$var wire 23 b" update_tag [22:0] $end
$var wire 4 c" update_index [3:0] $end
$var wire 32 d" target_predict [31:0] $end
$var wire 32 e" pc_update [31:0] $end
$var wire 32 f" pc_if [31:0] $end
$var wire 32 g" pc_hit [31:0] $end
$var wire 23 h" lookup_tag [22:0] $end
$var wire 4 i" lookup_index [3:0] $end
$var integer 32 j" i [31:0] $end
$upscope $end
$scope module data_memory_inst $end
$var wire 32 k" aligned_addr [31:0] $end
$var wire 1 , clk $end
$var wire 2 l" load_type [1:0] $end
$var wire 1 - reset $end
$var wire 4 m" wr_en [3:0] $end
$var wire 32 n" word_data [31:0] $end
$var wire 2 o" byte_offset [1:0] $end
$var wire 32 p" address [31:0] $end
$var wire 32 q" WriteData [31:0] $end
$var wire 1 E" MemRead $end
$var reg 32 r" ReadData [31:0] $end
$var integer 32 s" i [31:0] $end
$upscope $end
$scope module ex_mem_reg_inst $end
$var wire 32 t" alu_result_in [31:0] $end
$var wire 1 5" branch_taken_in $end
$var wire 32 u" branch_target_in [31:0] $end
$var wire 1 , clk $end
$var wire 1 P flush $end
$var wire 1 - reset $end
$var wire 32 v" rs2_data_in [31:0] $end
$var wire 1 w" stall $end
$var wire 5 x" rd_addr_in [4:0] $end
$var wire 3 y" funct3_in [2:0] $end
$var wire 1 6" branch_in $end
$var wire 1 ?" RegWrite_in $end
$var wire 1 A" MemWrite_in $end
$var wire 1 D" MemToReg_in $end
$var wire 1 F" MemRead_in $end
$var reg 1 E" MemRead_out $end
$var reg 1 C" MemToReg_out $end
$var reg 1 @" MemWrite_out $end
$var reg 1 >" RegWrite_out $end
$var reg 32 z" alu_result_out [31:0] $end
$var reg 1 {" branch_out $end
$var reg 1 |" branch_taken_out $end
$var reg 32 }" branch_target_out [31:0] $end
$var reg 3 ~" funct3_out [2:0] $end
$var reg 5 !# rd_addr_out [4:0] $end
$var reg 32 "# rs2_data_out [31:0] $end
$upscope $end
$scope module forwarding_unit_inst $end
$var wire 1 >" RegWrite_mem $end
$var wire 5 ## rd_mem [4:0] $end
$var wire 5 $# rs2_ex [4:0] $end
$var wire 5 %# rs1_ex [4:0] $end
$var wire 5 &# rd_wb [4:0] $end
$var wire 1 =" RegWrite_wb $end
$var reg 2 '# forward_a [1:0] $end
$var reg 2 (# forward_b [1:0] $end
$upscope $end
$scope module hazard_unit_inst $end
$var wire 1 )# control_hazard $end
$var wire 1 P flush_ex $end
$var wire 1 *# hazard_rs1 $end
$var wire 1 +# hazard_rs2 $end
$var wire 1 ,# jump_in $end
$var wire 1 -# load_use_hazard $end
$var wire 5 .# rs1_id_in [4:0] $end
$var wire 5 /# rs2_id_in [4:0] $end
$var wire 1 } stall $end
$var wire 5 0# rd_ex_in [4:0] $end
$var wire 1 6" branch_in $end
$var wire 1 F" MemRead_in $end
$upscope $end
$scope module id_ex_reg_inst $end
$var wire 1 D ALUSrc_in $end
$var wire 4 1# ALU_op_in [3:0] $end
$var wire 1 2# MemRead_in $end
$var wire 1 3# MemToReg_in $end
$var wire 1 4# MemWrite_in $end
$var wire 1 5# RegWrite_in $end
$var wire 1 6# branch_in $end
$var wire 1 , clk $end
$var wire 1 Q flush $end
$var wire 3 7# funct3_in [2:0] $end
$var wire 1 &" instr_30_in $end
$var wire 1 7 is_branch_in $end
$var wire 1 6 is_jal_in $end
$var wire 1 5 is_jalr_in $end
$var wire 7 8# opcode_in [6:0] $end
$var wire 5 9# rd_addr_in [4:0] $end
$var wire 1 - reset $end
$var wire 5 :# rs1_addr_in [4:0] $end
$var wire 5 ;# rs2_addr_in [4:0] $end
$var wire 1 <# stall $end
$var wire 32 =# rs2_data_in [31:0] $end
$var wire 32 ># rs1_data_in [31:0] $end
$var wire 1 l prediction_in $end
$var wire 32 ?# predicted_target_in [31:0] $end
$var wire 32 @# pc_in [31:0] $end
$var wire 32 A# immediate_in [31:0] $end
$var reg 1 H" ALUSrc_out $end
$var reg 4 B# ALU_op_out [3:0] $end
$var reg 1 F" MemRead_out $end
$var reg 1 D" MemToReg_out $end
$var reg 1 A" MemWrite_out $end
$var reg 1 ?" RegWrite_out $end
$var reg 1 6" branch_out $end
$var reg 3 C# funct3_out [2:0] $end
$var reg 32 D# immediate_out [31:0] $end
$var reg 1 '" instr_30_out $end
$var reg 1 #" is_branch_out $end
$var reg 1 "" is_jal_out $end
$var reg 1 !" is_jalr_out $end
$var reg 7 E# opcode_out [6:0] $end
$var reg 32 F# pc_out [31:0] $end
$var reg 32 G# predicted_target_out [31:0] $end
$var reg 1 m prediction_out $end
$var reg 5 H# rd_addr_out [4:0] $end
$var reg 5 I# rs1_addr_out [4:0] $end
$var reg 32 J# rs1_data_out [31:0] $end
$var reg 5 K# rs2_addr_out [4:0] $end
$var reg 32 L# rs2_data_out [31:0] $end
$upscope $end
$scope module if_id_reg_inst $end
$var wire 1 , clk $end
$var wire 1 R flush $end
$var wire 32 M# predicted_target_in [31:0] $end
$var wire 1 k prediction_in $end
$var wire 1 - reset $end
$var wire 1 W stall $end
$var wire 32 N# pc_in [31:0] $end
$var wire 32 O# instruction_in [31:0] $end
$var reg 32 P# instruction_out [31:0] $end
$var reg 32 Q# pc_out [31:0] $end
$var reg 32 R# predicted_target_out [31:0] $end
$var reg 1 l prediction_out $end
$upscope $end
$scope module imem_inst $end
$var wire 10 S# address [9:0] $end
$var wire 1 , clk $end
$var wire 1 - reset $end
$var reg 32 T# instruction [31:0] $end
$var integer 32 U# i [31:0] $end
$upscope $end
$scope module imm_gen_inst $end
$var wire 32 V# instruction [31:0] $end
$var wire 32 W# u_imm [31:0] $end
$var wire 32 X# s_imm [31:0] $end
$var wire 7 Y# opcode [6:0] $end
$var wire 32 Z# j_imm [31:0] $end
$var wire 32 [# i_imm [31:0] $end
$var wire 32 \# b_imm [31:0] $end
$var reg 32 ]# immediate [31:0] $end
$upscope $end
$scope module mem_wb_reg_inst $end
$var wire 1 C" MemToReg_in $end
$var wire 1 >" RegWrite_in $end
$var wire 32 ^# alu_result_in [31:0] $end
$var wire 1 , clk $end
$var wire 1 _# flush $end
$var wire 32 `# mem_data_in [31:0] $end
$var wire 5 a# rd_addr_in [4:0] $end
$var wire 1 - reset $end
$var wire 1 b# stall $end
$var reg 1 B" MemToReg_out $end
$var reg 1 =" RegWrite_out $end
$var reg 32 c# alu_result_out [31:0] $end
$var reg 32 d# mem_data_out [31:0] $end
$var reg 5 e# rd_addr_out [4:0] $end
$upscope $end
$scope module pc_inst $end
$var wire 1 , clk $end
$var wire 32 f# pc_next [31:0] $end
$var wire 1 - reset $end
$var reg 32 g# pc [31:0] $end
$upscope $end
$scope module pc_plus4_inst $end
$var wire 32 h# pc_in [31:0] $end
$var wire 32 i# pc_plus4 [31:0] $end
$upscope $end
$scope module ras_inst $end
$var wire 1 , clk $end
$var wire 1 O flush $end
$var wire 1 j# is_call $end
$var wire 1 k# is_return $end
$var wire 7 l# opcode [6:0] $end
$var wire 1 !" pop_en $end
$var wire 1 m# push_en $end
$var wire 5 n# rd [4:0] $end
$var wire 1 - reset $end
$var wire 32 o# return_addresss [31:0] $end
$var wire 5 p# rs1 [4:0] $end
$var wire 3 q# stack_ptr_out [2:0] $end
$var wire 32 r# top_stack_address [31:0] $end
$var wire 1 h valid_ras $end
$var reg 3 s# stack_ptr [2:0] $end
$var integer 32 t# i [31:0] $end
$upscope $end
$scope module register_inst $end
$var wire 1 , clk $end
$var wire 5 u# rd [4:0] $end
$var wire 1 - reset $end
$var wire 5 v# rs1_addr [4:0] $end
$var wire 5 w# rs2_addr [4:0] $end
$var wire 1 =" wr_en $end
$var wire 32 x# write_data [31:0] $end
$var wire 32 y# rs2_data [31:0] $end
$var wire 32 z# rs1_data [31:0] $end
$var integer 32 {# i [31:0] $end
$upscope $end
$upscope $end
$scope module performance_counters_inst $end
$var wire 1 * branch_mispredict $end
$var wire 1 , clk $end
$var wire 1 |# instruction_valid $end
$var wire 1 7 is_branch $end
$var wire 1 - reset $end
$var wire 1 ! stall $end
$var reg 32 }# branch_count [31:0] $end
$var reg 32 ~# branch_mispredicts [31:0] $end
$var reg 32 !$ cycle_count [31:0] $end
$var reg 32 "$ instruction_count [31:0] $end
$var reg 32 #$ stall_count [31:0] $end
$upscope $end
$upscope $end
$upscope $end
$enddefinitions $end
$comment Show the parameter values. $end
$dumpall
$end
#0
$dumpvars
b0 #$
b0 "$
b0 !$
b0 ~#
b0 }#
0|#
b100000 {#
b0 z#
b0 y#
b0 x#
b0 w#
b0 v#
b0 u#
b1000 t#
b0 s#
b0 r#
b0 q#
b0 p#
b100 o#
b0 n#
0m#
b0 l#
0k#
0j#
b100 i#
b0 h#
b0 g#
b100 f#
b0 e#
b0 d#
b0 c#
0b#
b0 a#
b0 `#
0_#
b0 ^#
b0 ]#
b0 \#
b0 [#
b0 Z#
b10011 Y#
b0 X#
b0 W#
b10011 V#
b10000000000 U#
b10010011 T#
b0 S#
b0 R#
b0 Q#
b10011 P#
b10010011 O#
b0 N#
b100 M#
b0 L#
b0 K#
b0 J#
b0 I#
b0 H#
b0 G#
b0 F#
b0 E#
b0 D#
b0 C#
b0 B#
b0 A#
b0 @#
b0 ?#
b0 >#
b0 =#
0<#
b0 ;#
b0 :#
b0 9#
b10011 8#
b0 7#
06#
15#
04#
03#
02#
b0 1#
b0 0#
b0 /#
b0 .#
0-#
0,#
0+#
0*#
0)#
b0 (#
b0 '#
b0 &#
b0 %#
b0 $#
b0 ##
b0 "#
b0 !#
b0 ~"
b0 }"
0|"
0{"
b0 z"
b0 y"
b0 x"
0w"
b0 v"
b0 u"
b0 t"
b10000000000 s"
b0 r"
b0 q"
b0 p"
b0 o"
b0 n"
b0 m"
b0 l"
b0 k"
b10000 j"
b0 i"
b0 h"
b0 g"
b0 f"
b0 e"
b100 d"
b0 c"
b0 b"
0a"
b100 `"
1_"
0^"
0]"
b0 \"
b0 ["
b0 Z"
b0 Y"
b0 X"
b0 W"
b10000 V"
b0 U"
b0 T"
b0 S"
b10 R"
b0 Q"
1P"
b0 O"
b0 N"
b0 M"
b0 L"
b0 K"
b0 J"
b0 I"
0H"
b0 G"
0F"
0E"
0D"
0C"
0B"
0A"
0@"
0?"
0>"
0="
b100 <"
b0 ;"
b0 :"
b0 9"
b0 8"
17"
06"
05"
b0 4"
03"
b100 2"
b0 1"
b0 0"
b0 /"
b0 ."
b0 -"
b0 ,"
b0 +"
b0 *"
b0 )"
b0 ("
0'"
0&"
b10011 %"
b10010011 $"
0#"
0""
0!"
b0 ~
0}
b0 |
b0 {
b0 z
b10011 y
b0 x
b0 w
b0 v
b100 u
b100 t
b100 s
b100 r
b10 q
b100 p
b0 o
b0 n
0m
0l
1k
b0 j
b0 i
0h
b0 g
b0 f
b0 e
b0 d
b0 c
b0 b
b0 a
b0 `
b0 _
b0 ^
b0 ]
b0 \
b0 [
b0 Z
b0 Y
0X
0W
b0 V
b0 U
b10010011 T
b10011 S
0R
0Q
0P
0O
b0 N
b0 M
b0 L
b0 K
b0 J
b0 I
b0 H
b0 G
b10011 F
b10011 E
1D
b0 C
0B
0A
0@
1?
0>
b0 =
b0 <
b0 ;
b0 :
b10011 9
b10010011 8
07
06
05
04
03
02
b0 1
b0 0
b0 /
b10011 .
1-
0,
b0 +
0*
b0 )
b0 (
b0 '
b10011 &
b10010011 %
b0 $
b0 #
b0 "
0!
$end
#5000
b10000000000 s"
b100000 {#
b1000 t#
b10000 V"
b10000 j"
1,
#10000
0,
#15000
b10000 j"
b10000 V"
b1000 t#
b100000 {#
b10000000000 s"
1,
#20000
0,
0-
#25000
b1000 f#
b1000 u
b1000 p
b1000 M#
b10100000000000100010011 %
b10100000000000100010011 8
b10100000000000100010011 T
b10100000000000100010011 $"
b10100000000000100010011 O#
b10100000000000100010011 T#
b1 X#
b100000000000 \#
b1 f
b1 9#
b1000 2"
b1000 d"
b1 i"
b1 S"
b1 S#
b1 (
b1 ;
b1 !$
b10011 z
b10011 ["
b10011 E#
b10011 l#
1H"
1?"
b100 n
b100 ?#
b100 R#
1l
1|#
b10010011 .
b10010011 E
b10010011 &
b10010011 9
b10010011 S
b10010011 %"
b10010011 P#
b10010011 V#
b1000 r
b1000 i#
b100 #
b100 0
b100 V
b100 v
b100 U"
b100 f"
b100 N#
b100 g#
b100 h#
1,
#30000
0,
#35000
b1100 f#
b1100 u
b1100 p
b1100 M#
b101000000000000110010011 %
b101000000000000110010011 8
b101000000000000110010011 T
b101000000000000110010011 $"
b101000000000000110010011 O#
b101000000000000110010011 T#
b101 ("
b101 A#
b101 ]#
b1100 2"
b1100 d"
b10 i"
b10 S"
b10 S#
b101 [#
b10 X#
b10 \#
b10100000000000000000000 W#
b100000000100 Z#
b10 f
b10 9#
b101 [
b101 /#
b101 ;#
b101 w#
b1100 r
b1100 i#
b1000 #
b1000 0
b1000 V
b1000 v
b1000 U"
b1000 f"
b1000 N#
b1000 g#
b1000 h#
b1000 n
b1000 ?#
b1000 R#
b10100000000000100010011 .
b10100000000000100010011 E
b10100000000000100010011 &
b10100000000000100010011 9
b10100000000000100010011 S
b10100000000000100010011 %"
b10100000000000100010011 P#
b10100000000000100010011 V#
b1000 s
b100 $
b100 1
b100 U
b100 w
b100 @#
b100 Q#
b100 o
b100 G#
1m
b1 g
b1 x"
b1 0#
b1 H#
b1 n#
1>"
b1 '
b1 :
b1 "$
b10 (
b10 ;
b10 !$
1,
#40000
0,
#45000
b10000 f#
b101 1"
b101 t"
b10000 u
07"
b101 :"
b101 O"
b101 M"
b1000 <"
b1000 `"
b1010 ("
b1010 A#
b1010 ]#
b10000 p
b10000 M#
b1000001000000110110011 %
b1000001000000110110011 8
b1000001000000110110011 T
b1000001000000110110011 $"
b1000001000000110110011 O#
b1000001000000110110011 T#
b101 ;"
b101 J"
b101 L"
b1 c"
b1 Q"
b1010 [#
b11 X#
b100000000010 \#
b101000000000000000000000 W#
b1010 Z#
b11 f
b11 9#
b1010 [
b1010 /#
b1010 ;#
b1010 w#
b10000 2"
b10000 d"
b11 i"
b11 S"
b11 S#
b10 '
b10 :
b10 "$
b11 (
b11 ;
b11 !$
1="
b1 e
b1 !#
b1 ##
b1 a#
b1000 o
b1000 G#
b10 g
b10 x"
b10 0#
b10 H#
b10 n#
b101 _
b101 $#
b101 K#
b101 )"
b101 D#
b1001 4"
b1001 u"
b1000 t
b1000 o#
b100 x
b100 T"
b100 e"
b100 F#
b1100 n
b1100 ?#
b1100 R#
b101000000000000110010011 .
b101000000000000110010011 E
b101000000000000110010011 &
b101000000000000110010011 9
b101000000000000110010011 S
b101000000000000110010011 %"
b101000000000000110010011 P#
b101000000000000110010011 V#
b1100 s
b1000 $
b1000 1
b1000 U
b1000 w
b1000 @#
b1000 Q#
b10000 r
b10000 i#
b1100 #
b1100 0
b1100 V
b1100 v
b1100 U"
b1100 f"
b1100 N#
b1100 g#
b1100 h#
1,
#50000
0,
#55000
b10100 f#
b10100 u
b1010 1"
b1010 t"
b10100 p
b10100 M#
b1000000001000001000001000110011 %
b1000000001000001000001000110011 8
b1000000001000001000001000110011 T
b1000000001000001000001000110011 $"
b1000000001000001000001000110011 O#
b1000000001000001000001000110011 T#
b0 ("
b0 A#
b0 ]#
1?
0D
b1010 :"
b1010 O"
b1010 M"
b1100 <"
b1100 `"
b10100 2"
b10100 d"
b100 i"
b100 S"
b100 S#
b110011 Y#
b10 [#
b1000001000000000000000 W#
b1000000000000010 Z#
b10 [
b10 /#
b10 ;#
b10 w#
b1 `
b1 .#
b1 :#
b1 v#
b110011 y
b110011 8#
b110011 F
b1010 ;"
b1010 J"
b1010 L"
b10 c"
b10 Q"
b1 o"
b100 k"
b10100 r
b10100 i#
b10000 #
b10000 0
b10000 V
b10000 v
b10000 U"
b10000 f"
b10000 N#
b10000 g#
b10000 h#
b10000 n
b10000 ?#
b10000 R#
b1000001000000110110011 .
b1000001000000110110011 E
b1000001000000110110011 &
b1000001000000110110011 9
b1000001000000110110011 S
b1000001000000110110011 %"
b1000001000000110110011 P#
b1000001000000110110011 V#
b10000 s
b1100 $
b1100 1
b1100 U
b1100 w
b1100 @#
b1100 Q#
b1100 o
b1100 G#
b11 g
b11 x"
b11 0#
b11 H#
b11 n#
b1010 _
b1010 $#
b1010 K#
b1010 )"
b1010 D#
b10010 4"
b10010 u"
b1100 t
b1100 o#
b1000 x
b1000 T"
b1000 e"
b1000 F#
b1001 }"
b10 e
b10 !#
b10 ##
b10 a#
b101 9"
b101 p"
b101 z"
b101 ^#
b1 d
b1 &#
b1 e#
b1 u#
b11 '
b11 :
b11 "$
b100 (
b100 ;
b100 !$
1,
#60000
0,
#65000
b11000 f#
b101 Z"
b101 -"
b101 Y"
b101 v"
b101 1"
b101 t"
b1 C
b1 J
b1 M
b1 1#
1?
b11000 u
b10000 <"
b10000 `"
07"
b101 :"
b101 O"
b101 M"
b1 I
b1 L
b11000 p
b11000 M#
b1000010010001010110011 %
b1000010010001010110011 8
b1000010010001010110011 T
b1000010010001010110011 $"
b1000010010001010110011 O#
b1000010010001010110011 T#
b101 Z
b101 x#
b10 o"
b1000 k"
b1 /"
b1 (#
b11 c"
b11 Q"
b101 ;"
b101 J"
b101 L"
b10000000010 [#
b10000000100 X#
b10000000100 \#
b1000000001000001000000000000000 W#
b1000010000000010 Z#
1&"
b100 f
b100 9#
b100000 G
b100000 K
b11000 2"
b11000 d"
b101 i"
b101 S"
b101 S#
b100 '
b100 :
b100 "$
b101 (
b101 ;
b101 !$
b10 d
b10 &#
b10 e#
b10 u#
b101 8"
b101 c#
b10010 }"
b11 e
b11 !#
b11 ##
b11 a#
b1010 9"
b1010 p"
b1010 z"
b1010 ^#
b10000 o
b10000 G#
b110011 z
b110011 ["
b110011 E#
b110011 l#
b10 _
b10 $#
b10 K#
b1 c
b1 %#
b1 I#
b1 p#
b0 )"
b0 D#
b1100 4"
b1100 u"
b10000 t
b10000 o#
b1100 x
b1100 T"
b1100 e"
b1100 F#
0H"
b10100 n
b10100 ?#
b10100 R#
b1000000001000001000001000110011 .
b1000000001000001000001000110011 E
b1000000001000001000001000110011 &
b1000000001000001000001000110011 9
b1000000001000001000001000110011 S
b1000000001000001000001000110011 %"
b1000000001000001000001000110011 P#
b1000000001000001000001000110011 V#
b10100 s
b10000 $
b10000 1
b10000 U
b10000 w
b10000 @#
b10000 Q#
b11000 r
b11000 i#
b10100 #
b10100 0
b10100 V
b10100 v
b10100 U"
b10100 f"
b10100 N#
b10100 g#
b10100 h#
1,
#70000
0,
#75000
17"
b0 M"
b11100 f#
b0 ;"
b0 J"
b0 L"
b11100 u
b0 Z"
b0 -"
b0 Y"
b0 v"
b11100 p
b11100 M#
b1000010011001100110011 %
b1000010011001100110011 8
b1000010011001100110011 T
b1000010011001100110011 $"
b1000010011001100110011 O#
b1000010011001100110011 T#
b101 a
b101 >#
b101 z#
1?
b11 C
b11 J
b11 M
b11 1#
b0 I
b0 L
b10100 <"
b10100 `"
b0 1"
b0 t"
b11100 2"
b11100 d"
b110 i"
b110 S"
b110 S#
b10 [#
b101 X#
b100000000100 \#
b1000010010000000000000 W#
b10010000000000010 Z#
0&"
b10 +"
b10 7#
b101 f
b101 9#
b10 `
b10 .#
b10 :#
b10 v#
b10 H
b0 G
b0 K
b101 ]
b101 =#
b101 y#
b100 c"
b100 Q"
b0 :"
b0 O"
b1 o"
b100 k"
b0 /"
b0 (#
b1010 Z
b1010 x#
b11100 r
b11100 i#
b11000 #
b11000 0
b11000 V
b11000 v
b11000 U"
b11000 f"
b11000 N#
b11000 g#
b11000 h#
b11000 n
b11000 ?#
b11000 R#
b1000010010001010110011 .
b1000010010001010110011 E
b1000010010001010110011 &
b1000010010001010110011 9
b1000010010001010110011 S
b1000010010001010110011 %"
b1000010010001010110011 P#
b1000010010001010110011 V#
b11000 s
b10100 $
b10100 1
b10100 U
b10100 w
b10100 @#
b10100 Q#
b10100 o
b10100 G#
1'"
b100 g
b100 x"
b100 0#
b100 H#
b100 n#
b10000 4"
b10000 u"
b10100 t
b10100 o#
b10000 x
b10000 T"
b10000 e"
b10000 F#
b1 G"
b1 N"
b1 B#
b1100 }"
b101 \
b101 q"
b101 "#
b101 9"
b101 p"
b101 z"
b101 ^#
b11 d
b11 &#
b11 e#
b11 u#
b1010 8"
b1010 c#
b101 '
b101 :
b101 "$
b110 (
b110 ;
b110 !$
1,
#80000
0,
