pipeline.vcd
$date
	Sat Nov  1 13:50:04 2025
$end
$version
	Icarus Verilog
$end
$timescale
	1ps
$end
$scope module tb_top $end
$var wire 1 ! icache_stall $end
$var wire 32 " stall_count [31:0] $end
$var wire 32 # pc_if [31:0] $end
$var wire 32 $ pc_id [31:0] $end
$var wire 32 % instruction_count [31:0] $end
$var wire 32 & instr_if [31:0] $end
$var wire 32 ' instr_id [31:0] $end
$var wire 32 ( cycle_count [31:0] $end
$var wire 32 ) branch_mispredicts [31:0] $end
$var wire 1 * branch_mispredict $end
$var wire 32 + branch_count [31:0] $end
$var reg 1 , clk $end
$var reg 1 - reset $end
$scope module dut $end
$var wire 1 , clk $end
$var wire 1 ! icache_stall_signal $end
$var wire 32 . instruction_id [31:0] $end
$var wire 1 - reset $end
$var wire 32 / stall_count [31:0] $end
$var wire 32 0 pc_if_debug [31:0] $end
$var wire 32 1 pc_id_debug [31:0] $end
$var wire 1 2 is_store $end
$var wire 1 3 is_load $end
$var wire 1 4 is_jump $end
$var wire 1 5 is_jalr $end
$var wire 1 6 is_jal $end
$var wire 1 7 is_branch $end
$var wire 32 8 instruction_if_debug [31:0] $end
$var wire 32 9 instruction_id_debug [31:0] $end
$var wire 32 : instruction_count [31:0] $end
$var wire 32 ; cycle_count [31:0] $end
$var wire 32 < branch_mispredicts [31:0] $end
$var wire 1 * branch_mispredict_signal $end
$var wire 32 = branch_count [31:0] $end
$var wire 1 > branch $end
$var wire 1 ? RegWrite $end
$var wire 1 @ MemWrite $end
$var wire 1 A MemToReg $end
$var wire 1 B MemRead $end
$var wire 4 C ALU_op [3:0] $end
$var wire 1 D ALUSrc $end
$scope module control_unit_inst $end
$var wire 32 E instruction [31:0] $end
$var wire 7 F opcode [6:0] $end
$var wire 7 G funct7 [6:0] $end
$var wire 3 H funct3 [2:0] $end
$var wire 4 I decoded_funct7 [3:0] $end
$var reg 1 D ALUSrc $end
$var reg 4 J ALU_op [3:0] $end
$var reg 1 B MemRead $end
$var reg 1 A MemToReg $end
$var reg 1 @ MemWrite $end
$var reg 1 ? RegWrite $end
$var reg 1 > branch $end
$var reg 1 7 is_branch $end
$var reg 1 6 is_jal $end
$var reg 1 5 is_jalr $end
$var reg 1 4 is_jump $end
$var reg 1 3 is_load $end
$var reg 1 2 is_store $end
$scope module decode_inst $end
$var wire 7 K funct7 [6:0] $end
$var reg 4 L alu_op [3:0] $end
$upscope $end
$upscope $end
$scope module dp $end
$var wire 1 D ALUSrc_id $end
$var wire 4 M ALU_op_id [3:0] $end
$var wire 1 B MemRead_id $end
$var wire 1 A MemToReg_id $end
$var wire 1 @ MemWrite_id $end
$var wire 1 ? RegWrite_id $end
$var wire 32 N alu_in_a [31:0] $end
$var wire 1 > branch_id $end
$var wire 1 * branch_mispredict $end
$var wire 1 , clk $end
$var wire 1 O control_hazard $end
$var wire 1 P flush_ex $end
$var wire 1 Q flush_id $end
$var wire 1 R flush_if $end
$var wire 1 ! icache_stall $end
$var wire 32 S instruction_id_debug [31:0] $end
$var wire 32 T instruction_if_debug [31:0] $end
$var wire 1 7 is_branch_id $end
$var wire 1 6 is_jal_id $end
$var wire 1 5 is_jalr_id $end
$var wire 1 4 is_jump_id $end
$var wire 32 U pc_id_debug [31:0] $end
$var wire 32 V pc_if_debug [31:0] $end
$var wire 1 - reset $end
$var wire 1 W stall $end
$var wire 1 X use_ras_prediction $end
$var wire 4 Y write_enable_mem [3:0] $end
$var wire 32 Z write_back_data [31:0] $end
$var wire 5 [ rs2_id [4:0] $end
$var wire 32 \ rs2_data_mem [31:0] $end
$var wire 32 ] rs2_data_id [31:0] $end
$var wire 32 ^ rs2_data_ex [31:0] $end
$var wire 5 _ rs2_addr_ex [4:0] $end
$var wire 5 ` rs1_id [4:0] $end
$var wire 32 a rs1_data_id [31:0] $end
$var wire 32 b rs1_data_ex [31:0] $end
$var wire 5 c rs1_addr_ex [4:0] $end
$var wire 5 d rd_wb [4:0] $end
$var wire 5 e rd_mem [4:0] $end
$var wire 5 f rd_id [4:0] $end
$var wire 5 g rd_ex [4:0] $end
$var wire 1 h ras_valid $end
$var wire 32 i ras_top_addr [31:0] $end
$var wire 3 j ras_ptr [2:0] $end
$var wire 1 k prediction_if $end
$var wire 1 l prediction_id $end
$var wire 1 m prediction_ex $end
$var wire 32 n predicted_target_id [31:0] $end
$var wire 32 o predicted_target_ex [31:0] $end
$var wire 32 p predicted_pc_if [31:0] $end
$var wire 2 q predict_strength_if [1:0] $end
$var wire 32 r pc_plus4_if [31:0] $end
$var wire 32 s pc_plus4_id [31:0] $end
$var wire 32 t pc_plus4_ex [31:0] $end
$var wire 32 u pc_next_if [31:0] $end
$var wire 32 v pc_if [31:0] $end
$var wire 32 w pc_id [31:0] $end
$var wire 32 x pc_ex [31:0] $end
$var wire 7 y opcode_id [6:0] $end
$var wire 7 z opcode_ex [6:0] $end
$var wire 32 { mem_read_data [31:0] $end
$var wire 32 | mem_data_wb [31:0] $end
$var wire 1 } load_use_stall $end
$var wire 2 ~ load_type_mem [1:0] $end
$var wire 1 !" is_jalr_ex $end
$var wire 1 "" is_jal_ex $end
$var wire 1 #" is_branch_ex $end
$var wire 32 $" instruction_if [31:0] $end
$var wire 32 %" instruction_id [31:0] $end
$var wire 1 &" instr_30_id $end
$var wire 1 '" instr_30_ex $end
$var wire 32 (" immediate_id [31:0] $end
$var wire 32 )" immediate_ex [31:0] $end
$var wire 3 *" funct3_mem [2:0] $end
$var wire 3 +" funct3_id [2:0] $end
$var wire 3 ," funct3_ex [2:0] $end
$var wire 32 -" forwarded_rs2_ex [31:0] $end
$var wire 32 ." forwarded_rs1_ex [31:0] $end
$var wire 2 /" forward_b [1:0] $end
$var wire 2 0" forward_a [1:0] $end
$var wire 32 1" ex_result [31:0] $end
$var wire 32 2" btb_target_if [31:0] $end
$var wire 1 3" btb_hit $end
$var wire 32 4" branch_target_ex [31:0] $end
$var wire 1 5" branch_taken_ex $end
$var wire 1 6" branch_ex $end
$var wire 1 7" alu_zero_ex $end
$var wire 32 8" alu_result_wb [31:0] $end
$var wire 32 9" alu_result_mem [31:0] $end
$var wire 32 :" alu_result_ex [31:0] $end
$var wire 32 ;" alu_in_b [31:0] $end
$var wire 32 <" actual_next_pc_ex [31:0] $end
$var wire 1 =" RegWrite_wb $end
$var wire 1 >" RegWrite_mem $end
$var wire 1 ?" RegWrite_ex $end
$var wire 1 @" MemWrite_mem $end
$var wire 1 A" MemWrite_ex $end
$var wire 1 B" MemToReg_wb $end
$var wire 1 C" MemToReg_mem $end
$var wire 1 D" MemToReg_ex $end
$var wire 1 E" MemRead_mem $end
$var wire 1 F" MemRead_ex $end
$var wire 4 G" ALU_op_ex [3:0] $end
$var wire 1 H" ALUSrc_ex $end
$scope module alu_inst $end
$var wire 32 I" a [31:0] $end
$var wire 32 J" b [31:0] $end
$var wire 32 K" signed_a [31:0] $end
$var wire 32 L" signed_b [31:0] $end
$var wire 5 M" shift_amount [4:0] $end
$var wire 64 N" mul_result_unsigned [63:0] $end
$var wire 64 O" mul_result_su [63:0] $end
$var wire 64 P" mul_result_signed [63:0] $end
$var wire 4 Q" ALUControl [3:0] $end
$var reg 32 R" result [31:0] $end
$var reg 1 7" zero $end
$upscope $end
$scope module bp_inst $end
$var wire 1 , clk $end
$var wire 1 S" predict_enable $end
$var wire 1 - reset $end
$var wire 6 T" update_index [5:0] $end
$var wire 1 6" update_enable $end
$var wire 1 k prediction $end
$var wire 2 U" predict_strength [1:0] $end
$var wire 6 V" predict_index [5:0] $end
$var wire 32 W" pc_update [31:0] $end
$var wire 32 X" pc_if [31:0] $end
$var wire 1 #" is_branch $end
$var wire 1 5" branch_taken $end
$var integer 32 Y" i [31:0] $end
$upscope $end
$scope module branch_control_inst $end
$var wire 1 7" alu_zero $end
$var wire 32 Z" rs1_data [31:0] $end
$var wire 32 [" rs1_signed [31:0] $end
$var wire 32 \" rs2_data [31:0] $end
$var wire 32 ]" rs2_signed [31:0] $end
$var wire 7 ^" opcode [6:0] $end
$var wire 3 _" funct3 [2:0] $end
$var wire 1 6" branch_enable $end
$var reg 1 5" branch_taken $end
$upscope $end
$scope module btb_inst $end
$var wire 1 , clk $end
$var wire 1 `" hit $end
$var wire 1 3" hit_valid $end
$var wire 1 a" is_branch_or_jump $end
$var wire 1 b" lookup_enable $end
$var wire 1 - reset $end
$var wire 32 c" target_update [31:0] $end
$var wire 1 d" update_enable $end
$var wire 23 e" update_tag [22:0] $end
$var wire 6 f" update_index [5:0] $end
$var wire 32 g" target_predict [31:0] $end
$var wire 32 h" pc_update [31:0] $end
$var wire 32 i" pc_if [31:0] $end
$var wire 32 j" pc_hit [31:0] $end
$var wire 23 k" lookup_tag [22:0] $end
$var wire 6 l" lookup_index [5:0] $end
$var integer 32 m" i [31:0] $end
$upscope $end
$scope module data_memory_inst $end
$var wire 32 n" aligned_addr [31:0] $end
$var wire 1 , clk $end
$var wire 2 o" load_type [1:0] $end
$var wire 1 - reset $end
$var wire 4 p" wr_en [3:0] $end
$var wire 32 q" word_data [31:0] $end
$var wire 2 r" byte_offset [1:0] $end
$var wire 32 s" address [31:0] $end
$var wire 32 t" WriteData [31:0] $end
$var wire 1 E" MemRead $end
$var reg 32 u" ReadData [31:0] $end
$var integer 32 v" i [31:0] $end
$upscope $end
$scope module ex_mem_reg_inst $end
$var wire 32 w" alu_result_in [31:0] $end
$var wire 1 5" branch_taken_in $end
$var wire 32 x" branch_target_in [31:0] $end
$var wire 1 , clk $end
$var wire 1 P flush $end
$var wire 1 - reset $end
$var wire 32 y" rs2_data_in [31:0] $end
$var wire 1 z" stall $end
$var wire 5 {" rd_addr_in [4:0] $end
$var wire 3 |" funct3_in [2:0] $end
$var wire 1 6" branch_in $end
$var wire 1 ?" RegWrite_in $end
$var wire 1 A" MemWrite_in $end
$var wire 1 D" MemToReg_in $end
$var wire 1 F" MemRead_in $end
$var reg 1 E" MemRead_out $end
$var reg 1 C" MemToReg_out $end
$var reg 1 @" MemWrite_out $end
$var reg 1 >" RegWrite_out $end
$var reg 32 }" alu_result_out [31:0] $end
$var reg 1 ~" branch_out $end
$var reg 1 !# branch_taken_out $end
$var reg 32 "# branch_target_out [31:0] $end
$var reg 3 ## funct3_out [2:0] $end
$var reg 5 $# rd_addr_out [4:0] $end
$var reg 32 %# rs2_data_out [31:0] $end
$upscope $end
$scope module forwarding_unit_inst $end
$var wire 1 >" RegWrite_mem $end
$var wire 5 &# rd_mem [4:0] $end
$var wire 5 '# rs2_ex [4:0] $end
$var wire 5 (# rs1_ex [4:0] $end
$var wire 5 )# rd_wb [4:0] $end
$var wire 1 =" RegWrite_wb $end
$var reg 2 *# forward_a [1:0] $end
$var reg 2 +# forward_b [1:0] $end
$upscope $end
$scope module hazard_unit_inst $end
$var wire 1 ,# control_hazard $end
$var wire 1 P flush_ex $end
$var wire 1 -# hazard_rs1 $end
$var wire 1 .# hazard_rs2 $end
$var wire 1 /# jump_in $end
$var wire 1 0# load_use_hazard $end
$var wire 5 1# rs1_id_in [4:0] $end
$var wire 5 2# rs2_id_in [4:0] $end
$var wire 1 } stall $end
$var wire 5 3# rd_ex_in [4:0] $end
$var wire 1 6" branch_in $end
$var wire 1 F" MemRead_in $end
$upscope $end
$scope module id_ex_reg_inst $end
$var wire 1 D ALUSrc_in $end
$var wire 4 4# ALU_op_in [3:0] $end
$var wire 1 5# MemRead_in $end
$var wire 1 6# MemToReg_in $end
$var wire 1 7# MemWrite_in $end
$var wire 1 8# RegWrite_in $end
$var wire 1 9# branch_in $end
$var wire 1 , clk $end
$var wire 1 Q flush $end
$var wire 3 :# funct3_in [2:0] $end
$var wire 1 &" instr_30_in $end
$var wire 1 7 is_branch_in $end
$var wire 1 6 is_jal_in $end
$var wire 1 5 is_jalr_in $end
$var wire 7 ;# opcode_in [6:0] $end
$var wire 5 <# rd_addr_in [4:0] $end
$var wire 1 - reset $end
$var wire 5 =# rs1_addr_in [4:0] $end
$var wire 5 ># rs2_addr_in [4:0] $end
$var wire 1 ?# stall $end
$var wire 32 @# rs2_data_in [31:0] $end
$var wire 32 A# rs1_data_in [31:0] $end
$var wire 1 l prediction_in $end
$var wire 32 B# predicted_target_in [31:0] $end
$var wire 32 C# pc_in [31:0] $end
$var wire 32 D# immediate_in [31:0] $end
$var reg 1 H" ALUSrc_out $end
$var reg 4 E# ALU_op_out [3:0] $end
$var reg 1 F" MemRead_out $end
$var reg 1 D" MemToReg_out $end
$var reg 1 A" MemWrite_out $end
$var reg 1 ?" RegWrite_out $end
$var reg 1 6" branch_out $end
$var reg 3 F# funct3_out [2:0] $end
$var reg 32 G# immediate_out [31:0] $end
$var reg 1 '" instr_30_out $end
$var reg 1 #" is_branch_out $end
$var reg 1 "" is_jal_out $end
$var reg 1 !" is_jalr_out $end
$var reg 7 H# opcode_out [6:0] $end
$var reg 32 I# pc_out [31:0] $end
$var reg 32 J# predicted_target_out [31:0] $end
$var reg 1 m prediction_out $end
$var reg 5 K# rd_addr_out [4:0] $end
$var reg 5 L# rs1_addr_out [4:0] $end
$var reg 32 M# rs1_data_out [31:0] $end
$var reg 5 N# rs2_addr_out [4:0] $end
$var reg 32 O# rs2_data_out [31:0] $end
$upscope $end
$scope module if_id_reg_inst $end
$var wire 1 , clk $end
$var wire 1 R flush $end
$var wire 32 P# predicted_target_in [31:0] $end
$var wire 1 k prediction_in $end
$var wire 1 - reset $end
$var wire 1 W stall $end
$var wire 32 Q# pc_in [31:0] $end
$var wire 32 R# instruction_in [31:0] $end
$var reg 32 S# instruction_out [31:0] $end
$var reg 32 T# pc_out [31:0] $end
$var reg 32 U# predicted_target_out [31:0] $end
$var reg 1 l prediction_out $end
$upscope $end
$scope module imem_inst $end
$var wire 10 V# address [9:0] $end
$var wire 1 , clk $end
$var wire 1 - reset $end
$var reg 32 W# instruction [31:0] $end
$var integer 32 X# i [31:0] $end
$upscope $end
$scope module imm_gen_inst $end
$var wire 32 Y# instruction [31:0] $end
$var wire 32 Z# u_imm [31:0] $end
$var wire 32 [# s_imm [31:0] $end
$var wire 7 \# opcode [6:0] $end
$var wire 32 ]# j_imm [31:0] $end
$var wire 32 ^# i_imm [31:0] $end
$var wire 32 _# b_imm [31:0] $end
$var reg 32 `# immediate [31:0] $end
$upscope $end
$scope module mem_wb_reg_inst $end
$var wire 1 C" MemToReg_in $end
$var wire 1 >" RegWrite_in $end
$var wire 32 a# alu_result_in [31:0] $end
$var wire 1 , clk $end
$var wire 1 b# flush $end
$var wire 32 c# mem_data_in [31:0] $end
$var wire 5 d# rd_addr_in [4:0] $end
$var wire 1 - reset $end
$var wire 1 e# stall $end
$var reg 1 B" MemToReg_out $end
$var reg 1 =" RegWrite_out $end
$var reg 32 f# alu_result_out [31:0] $end
$var reg 32 g# mem_data_out [31:0] $end
$var reg 5 h# rd_addr_out [4:0] $end
$upscope $end
$scope module pc_inst $end
$var wire 1 , clk $end
$var wire 32 i# pc_next [31:0] $end
$var wire 1 - reset $end
$var reg 32 j# pc [31:0] $end
$upscope $end
$scope module pc_plus4_inst $end
$var wire 32 k# pc_in [31:0] $end
$var wire 32 l# pc_plus4 [31:0] $end
$upscope $end
$scope module ras_inst $end
$var wire 1 , clk $end
$var wire 1 O flush $end
$var wire 1 m# is_call $end
$var wire 1 n# is_return $end
$var wire 7 o# opcode [6:0] $end
$var wire 1 !" pop_en $end
$var wire 1 p# push_en $end
$var wire 5 q# rd [4:0] $end
$var wire 1 - reset $end
$var wire 32 r# return_addresss [31:0] $end
$var wire 5 s# rs1 [4:0] $end
$var wire 3 t# stack_ptr_out [2:0] $end
$var wire 32 u# top_stack_address [31:0] $end
$var wire 1 h valid_ras $end
$var reg 3 v# stack_ptr [2:0] $end
$var integer 32 w# i [31:0] $end
$upscope $end
$scope module register_inst $end
$var wire 1 , clk $end
$var wire 5 x# rd [4:0] $end
$var wire 1 - reset $end
$var wire 5 y# rs1_addr [4:0] $end
$var wire 5 z# rs2_addr [4:0] $end
$var wire 1 =" wr_en $end
$var wire 32 {# write_data [31:0] $end
$var wire 32 |# rs2_data [31:0] $end
$var wire 32 }# rs1_data [31:0] $end
$var integer 32 ~# i [31:0] $end
$upscope $end
$upscope $end
$scope module performance_counters_inst $end
$var wire 1 * branch_mispredict $end
$var wire 1 , clk $end
$var wire 1 !$ instruction_valid $end
$var wire 1 7 is_branch $end
$var wire 1 - reset $end
$var wire 1 ! stall $end
$var reg 32 "$ branch_count [31:0] $end
$var reg 32 #$ branch_mispredicts [31:0] $end
$var reg 32 $$ cycle_count [31:0] $end
$var reg 32 %$ instruction_count [31:0] $end
$var reg 32 &$ stall_count [31:0] $end
$upscope $end
$upscope $end
$upscope $end
$enddefinitions $end
$comment Show the parameter values. $end
$dumpall
$end
#0
$dumpvars
b0 &$
b0 %$
b0 $$
b0 #$
b0 "$
0!$
b100000 ~#
b0 }#
b0 |#
b0 {#
b0 z#
b0 y#
b0 x#
b1000 w#
b0 v#
b0 u#
b0 t#
b0 s#
b100 r#
b0 q#
0p#
b0 o#
0n#
0m#
b100 l#
b0 k#
b0 j#
b100 i#
b0 h#
b0 g#
b0 f#
0e#
b0 d#
b0 c#
0b#
b0 a#
b0 `#
b0 _#
b0 ^#
b0 ]#
b10011 \#
b0 [#
b0 Z#
b10011 Y#
b10000000000 X#
b1000000000010000010011 W#
b0 V#
b0 U#
b0 T#
b10011 S#
b1000000000010000010011 R#
b0 Q#
b100 P#
b0 O#
b0 N#
b0 M#
b0 L#
b0 K#
b0 J#
b0 I#
b0 H#
b0 G#
b0 F#
b0 E#
b0 D#
b0 C#
b0 B#
b0 A#
b0 @#
0?#
b0 >#
b0 =#
b0 <#
b10011 ;#
b0 :#
09#
18#
07#
06#
05#
b0 4#
b0 3#
b0 2#
b0 1#
00#
0/#
0.#
0-#
0,#
b0 +#
b0 *#
b0 )#
b0 (#
b0 '#
b0 &#
b0 %#
b0 $#
b0 ##
b0 "#
0!#
0~"
b0 }"
b0 |"
b0 {"
0z"
b0 y"
b0 x"
b0 w"
b10000000000 v"
b0 u"
b0 t"
b0 s"
b0 r"
b0 q"
b0 p"
b0 o"
b0 n"
b1000000 m"
b0 l"
b0 k"
b0 j"
b0 i"
b0 h"
b100 g"
b0 f"
b0 e"
0d"
b100 c"
1b"
0a"
0`"
b0 _"
b0 ^"
b0 ]"
b0 \"
b0 ["
b0 Z"
b1000000 Y"
b0 X"
b0 W"
b0 V"
b1 U"
b0 T"
1S"
b0 R"
b0 Q"
b0 P"
b0 O"
b0 N"
b0 M"
b0 L"
b0 K"
b0 J"
b0 I"
0H"
b0 G"
0F"
0E"
0D"
0C"
0B"
0A"
0@"
0?"
0>"
0="
b100 <"
b0 ;"
b0 :"
b0 9"
b0 8"
17"
06"
05"
b0 4"
03"
b100 2"
b0 1"
b0 0"
b0 /"
b0 ."
b0 -"
b0 ,"
b0 +"
b0 *"
b0 )"
b0 ("
0'"
0&"
b10011 %"
b1000000000010000010011 $"
0#"
0""
0!"
b0 ~
0}
b0 |
b0 {
b0 z
b10011 y
b0 x
b0 w
b0 v
b100 u
b100 t
b100 s
b100 r
b1 q
b100 p
b0 o
b0 n
0m
0l
0k
b0 j
b0 i
0h
b0 g
b0 f
b0 e
b0 d
b0 c
b0 b
b0 a
b0 `
b0 _
b0 ^
b0 ]
b0 \
b0 [
b0 Z
b0 Y
0X
0W
b0 V
b0 U
b1000000000010000010011 T
b10011 S
0R
0Q
0P
0O
b0 N
b0 M
b0 L
b0 K
b0 J
b0 I
b0 H
b0 G
b10011 F
b10011 E
1D
b0 C
0B
0A
0@
1?
0>
b0 =
b0 <
b0 ;
b0 :
b10011 9
b1000000000010000010011 8
07
06
05
04
03
02
b0 1
b0 0
b0 /
b10011 .
1-
0,
b0 +
0*
b0 )
b0 (
b10011 '
b1000000000010000010011 &
b0 %
b0 $
b0 #
b0 "
0!
$end
#5000
b10000000000 v"
b100000 ~#
b1000 w#
b1000000 Y"
b1000000 m"
1,
#10000
0,
#15000
b1000000 m"
b1000000 Y"
b1000 w#
b100000 ~#
b10000000000 v"
1,
#20000
0,
#25000
b10000000000 v"
b100000 ~#
b1000 w#
b1000000 Y"
b1000000 m"
1,
#30000
0,
#35000
b1000000 m"
b1000000 Y"
b1000 w#
b100000 ~#
b10000000000 v"
1,
#40000
0,
#45000
b10000000000 v"
b100000 ~#
b1000 w#
b1000000 Y"
b1000000 m"
1,
#50000
0,
0-
#55000
b1000 i#
b1000 u
b1000 p
b1000 P#
b1100000000010010010011 &
b1100000000010010010011 8
b1100000000010010010011 T
b1100000000010010010011 $"
b1100000000010010010011 R#
b1100000000010010010011 W#
b10 ("
b10 D#
b10 `#
b1000 2"
b1000 g"
b1 l"
b1 V"
b1 V#
b10 ^#
b1000 [#
b1000 _#
b1000000000000000000000 Z#
b10 ]#
b1000 f
b1000 <#
b10 [
b10 2#
b10 >#
b10 z#
b1000 r
b1000 l#
b100 #
b100 0
b100 V
b100 v
b100 X"
b100 i"
b100 Q#
b100 j#
b100 k#
b100 n
b100 B#
b100 U#
1!$
b1000000000010000010011 .
b1000000000010000010011 E
b1000000000010000010011 '
b1000000000010000010011 9
b1000000000010000010011 S
b1000000000010000010011 %"
b1000000000010000010011 S#
b1000000000010000010011 Y#
b10011 z
b10011 ^"
b10011 H#
b10011 o#
1H"
1?"
b1 (
b1 ;
b1 $$
1,
#60000
0,
#65000
b1100 i#
b10 1"
b10 w"
b1100 u
07"
b10 :"
b10 R"
b10 M"
b11 ("
b11 D#
b11 `#
b1100 p
b1100 P#
b10000000000010100010011 &
b10000000000010100010011 8
b10000000000010100010011 T
b10000000000010100010011 $"
b10000000000010100010011 R#
b10000000000010100010011 W#
b10 ;"
b10 J"
b10 L"
b11 ^#
b1001 [#
b100000001000 _#
b1100000000000000000000 Z#
b100000000010 ]#
b1001 f
b1001 <#
b11 [
b11 2#
b11 >#
b11 z#
b1100 2"
b1100 g"
b10 l"
b10 V"
b10 V#
b1 %
b1 :
b1 %$
b10 (
b10 ;
b10 $$
1>"
b100 o
b100 J#
b1000 g
b1000 {"
b1000 3#
b1000 K#
b1000 q#
b10 _
b10 '#
b10 N#
b10 4"
b10 x"
b10 )"
b10 G#
b1000 n
b1000 B#
b1000 U#
b1100000000010010010011 .
b1100000000010010010011 E
b1100000000010010010011 '
b1100000000010010010011 9
b1100000000010010010011 S
b1100000000010010010011 %"
b1100000000010010010011 S#
b1100000000010010010011 Y#
b1000 s
b100 $
b100 1
b100 U
b100 w
b100 C#
b100 T#
b1100 r
b1100 l#
b1000 #
b1000 0
b1000 V
b1000 v
b1000 X"
b1000 i"
b1000 Q#
b1000 j#
b1000 k#
1,
#70000
0,
#75000
b10000 i#
b10000 u
b11 1"
b11 w"
b10000 p
b10000 P#
b10100000000010110010011 &
b10100000000010110010011 8
b10100000000010110010011 T
b10100000000010110010011 $"
b10100000000010110010011 R#
b10100000000010110010011 W#
b100 ("
b100 D#
b100 `#
b11 :"
b11 R"
b11 M"
b1000 <"
b1000 c"
b10000 2"
b10000 g"
b11 l"
b11 V"
b11 V#
b100 ^#
b1010 [#
b1010 _#
b10000000000000000000000 Z#
b100 ]#
b1010 f
b1010 <#
b100 [
b100 2#
b100 >#
b100 z#
b11 ;"
b11 J"
b11 L"
b1 f"
b1 T"
b10 r"
b10000 r
b10000 l#
b1100 #
b1100 0
b1100 V
b1100 v
b1100 X"
b1100 i"
b1100 Q#
b1100 j#
b1100 k#
b1100 n
b1100 B#
b1100 U#
b10000000000010100010011 .
b10000000000010100010011 E
b10000000000010100010011 '
b10000000000010100010011 9
b10000000000010100010011 S
b10000000000010100010011 %"
b10000000000010100010011 S#
b10000000000010100010011 Y#
b1100 s
b1000 $
b1000 1
b1000 U
b1000 w
b1000 C#
b1000 T#
b1000 o
b1000 J#
b1001 g
b1001 {"
b1001 3#
b1001 K#
b1001 q#
b11 _
b11 '#
b11 N#
b11 )"
b11 G#
b111 4"
b111 x"
b1000 t
b1000 r#
b100 x
b100 W"
b100 h"
b100 I#
b10 "#
b1000 e
b1000 $#
b1000 &#
b1000 d#
b10 9"
b10 s"
b10 }"
b10 a#
1="
b10 %
b10 :
b10 %$
b11 (
b11 ;
b11 $$
1,
#80000
0,
#85000
b10100 i#
b100 1"
b100 w"
b10100 u
b100 :"
b100 R"
b100 M"
b1100 <"
b1100 c"
b101 ("
b101 D#
b101 `#
b10100 p
b10100 P#
b10100000000011000010011 &
b10100000000011000010011 8
b10100000000011000010011 T
b10100000000011000010011 $"
b10100000000011000010011 R#
b10100000000011000010011 W#
b10 Z
b10 {#
b11 r"
b100 ;"
b100 J"
b100 L"
b10 f"
b10 T"
b101 ^#
b1011 [#
b100000001010 _#
b10100000000000000000000 Z#
b100000000100 ]#
b1011 f
b1011 <#
b101 [
b101 2#
b101 >#
b101 z#
b10100 2"
b10100 g"
b100 l"
b100 V"
b100 V#
b11 %
b11 :
b11 %$
b100 (
b100 ;
b100 $$
b1000 d
b1000 )#
b1000 h#
b1000 x#
b10 8"
b10 f#
b111 "#
b1001 e
b1001 $#
b1001 &#
b1001 d#
b11 9"
b11 s"
b11 }"
b11 a#
b1100 o
b1100 J#
b1010 g
b1010 {"
b1010 3#
b1010 K#
b1010 q#
b100 _
b100 '#
b100 N#
b100 )"
b100 G#
b1100 4"
b1100 x"
b1100 t
b1100 r#
b1000 x
b1000 W"
b1000 h"
b1000 I#
b10000 n
b10000 B#
b10000 U#
b10100000000010110010011 .
b10100000000010110010011 E
b10100000000010110010011 '
b10100000000010110010011 9
b10100000000010110010011 S
b10100000000010110010011 %"
b10100000000010110010011 S#
b10100000000010110010011 Y#
b10000 s
b1100 $
b1100 1
b1100 U
b1100 w
b1100 C#
b1100 T#
b10100 r
b10100 l#
b10000 #
b10000 0
b10000 V
b10000 v
b10000 X"
b10000 i"
b10000 Q#
b10000 j#
b10000 k#
1,
#90000
0,
#95000
b11000 i#
b11000 u
b101 1"
b101 w"
b11000 p
b11000 P#
b11000000000011010010011 &
b11000000000011010010011 8
b11000000000011010010011 T
b11000000000011010010011 $"
b11000000000011010010011 R#
b11000000000011010010011 W#
b101 :"
b101 R"
b101 M"
b10000 <"
b10000 c"
b11000 2"
b11000 g"
b101 l"
b101 V"
b101 V#
b1100 [#
b1100 _#
b1100 f
b1100 <#
b101 ;"
b101 J"
b101 L"
b11 f"
b11 T"
b0 r"
b100 n"
b11 Z
b11 {#
b11000 r
b11000 l#
b10100 #
b10100 0
b10100 V
b10100 v
b10100 X"
b10100 i"
b10100 Q#
b10100 j#
b10100 k#
b10100 n
b10100 B#
b10100 U#
b10100000000011000010011 .
b10100000000011000010011 E
b10100000000011000010011 '
b10100000000011000010011 9
b10100000000011000010011 S
b10100000000011000010011 %"
b10100000000011000010011 S#
b10100000000011000010011 Y#
b10100 s
b10000 $
b10000 1
b10000 U
b10000 w
b10000 C#
b10000 T#
b10000 o
b10000 J#
b1011 g
b1011 {"
b1011 3#
b1011 K#
b1011 q#
b101 _
b101 '#
b101 N#
b101 )"
b101 G#
b10001 4"
b10001 x"
b10000 t
b10000 r#
b1100 x
b1100 W"
b1100 h"
b1100 I#
b1100 "#
b1010 e
b1010 $#
b1010 &#
b1010 d#
b100 9"
b100 s"
b100 }"
b100 a#
b1001 d
b1001 )#
b1001 h#
b1001 x#
b11 8"
b11 f#
b100 %
b100 :
b100 %$
b101 (
b101 ;
b101 $$
1,
#100000
0,
#105000
b11100 i#
b11100 u
b10100 <"
b10100 c"
b110 ("
b110 D#
b110 `#
b11100 p
b11100 P#
b11100000000011100010011 &
b11100000000011100010011 8
b11100000000011100010011 T
b11100000000011100010011 $"
b11100000000011100010011 R#
b11100000000011100010011 W#
b100 Z
b100 {#
b1 r"
b100 f"
b100 T"
b110 ^#
b1101 [#
b100000001100 _#
b11000000000000000000000 Z#
b110 ]#
b1101 f
b1101 <#
b110 [
b110 2#
b110 >#
b110 z#
b11100 2"
b11100 g"
b110 l"
b110 V"
b110 V#
b101 %
b101 :
b101 %$
b110 (
b110 ;
b110 $$
b1010 d
b1010 )#
b1010 h#
b1010 x#
b100 8"
b100 f#
b10001 "#
b1011 e
b1011 $#
b1011 &#
b1011 d#
b101 9"
b101 s"
b101 }"
b101 a#
b10100 o
b10100 J#
b1100 g
b1100 {"
b1100 3#
b1100 K#
b1100 q#
b10101 4"
b10101 x"
b10100 t
b10100 r#
b10000 x
b10000 W"
b10000 h"
b10000 I#
b11000 n
b11000 B#
b11000 U#
b11000000000011010010011 .
b11000000000011010010011 E
b11000000000011010010011 '
b11000000000011010010011 9
b11000000000011010010011 S
b11000000000011010010011 %"
b11000000000011010010011 S#
b11000000000011010010011 Y#
b11000 s
b10100 $
b10100 1
b10100 U
b10100 w
b10100 C#
b10100 T#
b11100 r
b11100 l#
b11000 #
b11000 0
b11000 V
b11000 v
b11000 X"
b11000 i"
b11000 Q#
b11000 j#
b11000 k#
1,
#110000
0,
